{
	"sellerStopID": 1,
	"latitude": 42.6059868,
	"longitude": -89.38401529999999,
	"smallImage": "The small display image",
	"largeImage": "The large image when interacting",
	"name": "The name of the stop",
	"text": "Informational text",
	"items": [
		{
			"itemID": 1,
			"name": "The name of the item.",
			"description": "The description of the item."
		},
		{
			"itemID": 2,
			"name": "The name of the item.",
			"description": "The description of the item."
		}
	]
}